OdometryModelName,CountLearn,CountTest,Try,SizeParams,coef00,coef01,coef02,coef03,coef04,coef05
LinearSimpleXYA,5,5,0,6,0.0199599,1.04129,-0.0105556,2,-0.0130752,0.910795
LinearSimpleXYA,5,5,1,6,-0.000531471,1.60044,-0.02,0.923256,-0.00582327,0.875015
LinearSimpleXYA,5,5,2,6,0.0139869,0.962368,-0.0178976,1.60774,-0.00329828,0.932298
LinearSimpleXYA,5,5,3,6,0.00634589,1.56793,-0.00530335,1.07136,-0.00599185,0.875605
LinearSimpleXYA,5,5,4,6,0.02,1.3753,-0.0181418,1.36902,0.00335316,0.987347
LinearSimpleXYA,5,5,5,6,-0.00568057,1.01349,-0.0190427,1.46571,-0.0228135,0.852134
LinearSimpleXYA,5,5,6,6,-0.00668758,1.53531,0.0093269,1.17945,-0.0135241,0.804666
LinearSimpleXYA,5,5,7,6,0.0170642,1.24033,-0.0159287,1.71019,-0.0113558,0.850698
LinearSimpleXYA,5,5,8,6,0.00280892,1.45842,-0.00703986,2,-0.00586207,0.894161
LinearSimpleXYA,5,5,9,6,0.00529051,1.48658,-0.00749377,1.28063,-0.00859642,0.910677
LinearSimpleXYA,5,5,10,6,0.0169773,0.771543,-0.0148396,2,-0.00904259,0.886276
LinearSimpleXYA,5,5,11,6,-0.00136504,1.57372,-0.00274371,1.46266,-0.0181381,0.939249
LinearSimpleXYA,5,5,12,6,0.0106683,1.21735,-0.00385279,0.93888,-0.00398663,0.858796
LinearSimpleXYA,5,5,13,6,0.02,0.788983,-0.02,1.74011,0.000440763,0.853106
LinearSimpleXYA,5,5,14,6,0.010148,1.62382,0.00725582,0.774562,-0.0264729,0.973981
LinearSimpleXYA,5,5,15,6,-0.02,0.560501,-0.0117605,2,0.00521697,0.912425
LinearSimpleXYA,5,5,16,6,0.0100774,1.52113,-0.0168935,1.10573,-0.01262,0.940063
LinearSimpleXYA,5,5,17,6,0.0107729,0.939004,-0.0161509,2,-0.00904259,0.886276
LinearSimpleXYA,5,5,18,6,0.000497846,1.06651,-0.00273601,1.27562,0.00589974,0.969076
LinearSimpleXYA,5,5,19,6,0.00863196,1.13911,-0.00569521,1.46318,0.00734379,0.924654
LinearSimpleXYA,5,5,20,6,-0.00563911,1.54257,0.00381082,1.20978,-0.00130524,0.874923
LinearSimpleXYA,5,5,21,6,0.0186728,0.985729,-0.0192262,1.11353,-0.00298092,0.865074
LinearSimpleXYA,5,5,22,6,0.00262638,1.86859,0.00444008,1.08254,0.000412578,0.849586
LinearSimpleXYA,5,5,23,6,0.0141652,1.47529,-0.0091125,2,0.00220018,0.858885
LinearSimpleXYA,5,5,24,6,-0.0173042,1.04475,-0.00297625,1.82079,0.0107728,0.944371
LinearSimpleXYA,5,5,25,6,-0.00335789,1.53819,0.000804106,1.08505,-0.0049773,0.879555
LinearSimpleXYA,5,5,26,6,0.00532386,1.99309,0.0198249,1.74045,0.0161869,0.975245
LinearSimpleXYA,5,5,27,6,-0.0114381,1.78043,-0.00478954,2,-0.0115967,0.875771
LinearSimpleXYA,5,5,28,6,0.00400753,1.22453,0.00803688,1.53483,-0.0110195,0.89319
LinearSimpleXYA,5,5,29,6,0.00889093,1.13522,-0.00608609,1.43604,0.00734379,0.924654
LinearSimpleXYA,5,5,30,6,0.00171465,1.06805,-0.00681699,1.34652,0.00782666,0.955251
LinearSimpleXYA,5,5,31,6,-0.00121435,1.56007,0.0135949,1.80543,0.000801682,0.876857
LinearSimpleXYA,5,5,32,6,0.00591496,1.38113,-0.00186082,1.43139,0.0125487,0.939806
LinearSimpleXYA,5,5,33,6,0.0033043,1.09015,-0.0132248,1.06587,0.00778057,0.952063
LinearSimpleXYA,5,5,34,6,0.0113891,1.67499,-0.00623963,0.992338,-0.0073471,0.975311
LinearSimpleXYA,5,5,35,6,0.00629835,1.29968,-0.0115934,1.76399,-0.00319673,0.864047
LinearSimpleXYA,5,5,36,6,0.0190869,1.23954,-0.0114813,1.13502,-0.00363015,0.968554
LinearSimpleXYA,5,5,37,6,0.00870318,1.30344,-0.00241205,1.97252,-0.00545407,0.923678
LinearSimpleXYA,5,5,38,6,0.000848165,0.54998,-0.02,1.60891,0.00623742,0.918293
LinearSimpleXYA,5,5,39,6,-0.0153089,1.14186,-0.0159402,1.22899,0.0103091,0.926652
LinearSimpleXYA,5,5,40,6,-0.00498924,1.40622,0.011776,1.25785,-0.00334002,0.900414
LinearSimpleXYA,5,5,41,6,0.00792353,1.94047,0.00899368,0.895992,-0.00193008,0.893162
LinearSimpleXYA,5,5,42,6,0.00733481,1.59383,0.00481007,1.31133,-0.0155058,0.823063
LinearSimpleXYA,5,5,43,6,0.00471606,1.61889,-0.00943396,1.44384,0.00456229,0.953592
LinearSimpleXYA,5,5,44,6,0.00975415,1.68757,-0.00152002,1.08348,-0.00900662,0.966062
LinearSimpleXYA,5,5,45,6,0.0100171,1.7075,-0.00681348,1.17972,-0.0037404,0.952521
LinearSimpleXYA,5,5,46,6,0.017237,1.159,-0.0108267,1.72344,-0.00904259,0.886276
LinearSimpleXYA,5,5,47,6,0.0169101,1.75175,-0.00198769,1.25348,-0.00216203,0.907854
LinearSimpleXYA,5,5,48,6,-0.00650008,1.83929,0.000553653,1.39892,0.0154467,0.807889
LinearSimpleXYA,5,5,49,6,0.00981435,1.21269,-0.00574034,1.3343,0.000409128,0.852993
LinearSimpleXYA,5,5,50,6,0.0121316,1.45178,0.00125585,1.04117,0.00623606,0.918285
LinearSimpleXYA,5,5,51,6,-0.00345051,1.49294,-0.00155046,1.23046,-0.00676204,0.83279
LinearSimpleXYA,5,5,52,6,0.0062497,1.56693,0.00828638,1.42034,0.00153944,0.857251
LinearSimpleXYA,5,5,53,6,0.0068054,1.34752,0.0116569,1.5236,0.011585,0.942283
LinearSimpleXYA,5,5,54,6,0.00503391,1.57136,0.000241525,1.3329,0.00946259,0.82155
LinearSimpleXYA,5,5,55,6,0.0137861,1.56729,-0.00953255,1.42546,-0.00525001,0.852241
LinearSimpleXYA,5,5,56,6,-0.0158542,0.900985,-0.018365,1.99934,-0.00123935,0.875302
LinearSimpleXYA,5,5,57,6,-0.00275013,1.36384,-0.00614548,2,-0.00530445,0.895543
LinearSimpleXYA,5,5,58,6,0.0151002,1.58427,-0.00234421,1.63537,0.0097167,0.900023
LinearSimpleXYA,5,5,59,6,0.00479788,1.26222,0.0098375,1.43138,-0.0151536,0.90676
LinearSimpleXYA,5,5,60,6,0.00304928,1.65516,0.00579037,1.68003,0.00404581,0.961663
LinearSimpleXYA,5,5,61,6,-0.00295701,1.27561,-0.000982774,2,-0.00947398,0.887784
LinearSimpleXYA,5,5,62,6,0.00583547,1.36884,-0.00459692,1.38223,0.0106242,0.935179
LinearSimpleXYA,5,5,63,6,0.00461376,1.14418,0.00650804,1.78225,-0.0114201,0.894591
LinearSimpleXYA,5,5,64,6,0.00411393,1.35949,-0.00811957,0.675262,0.0149001,0.986208
LinearSimpleXYA,5,5,65,6,0.0127253,1.29647,-0.00335471,1.60205,0.00536415,0.921994
LinearSimpleXYA,5,5,66,6,0.0103906,1.48865,-0.00101658,1.86089,0.00456034,0.90865
LinearSimpleXYA,5,5,67,6,0.00249571,1.44773,-0.0160968,1.21105,-0.00969456,0.967466
LinearSimpleXYA,5,5,68,6,0.00624543,1.35851,-0.0117133,1.99685,-0.00949268,0.867305
LinearSimpleXYA,5,5,69,6,-0.00672724,0.705169,-0.0115105,1.55895,0.007198,0.923816
LinearSimpleXYA,5,5,70,6,0.0153576,1.39448,-0.0155611,1.78105,0.00404584,0.961663
LinearSimpleXYA,5,5,71,6,0.0093381,1.17367,0.00251234,1.34454,-0.0173323,0.873422
LinearSimpleXYA,5,5,72,6,0.00953668,1.81254,-0.00763321,1.72369,-0.0154447,0.992416
LinearSimpleXYA,5,5,73,6,0.0153403,1.13954,-0.0109077,1.53176,-0.00969456,0.967466
LinearSimpleXYA,5,5,74,6,0.00230059,1.45695,0.00257224,1.76125,0.00212381,0.88425
LinearSimpleXYA,5,5,75,6,-0.00463765,1.36506,-0.00360206,1.80321,-0.00519551,0.857518
LinearSimpleXYA,5,5,76,6,0.00899118,1.16608,-0.003308,1.26643,-0.0110195,0.89319
LinearSimpleXYA,5,5,77,6,0.00938016,1.48067,-0.00720001,1.9844,-0.00559298,0.893063
LinearSimpleXYA,5,5,78,6,-5.64663e-05,1.35521,-0.00251042,1.3317,-0.0110857,0.892983
LinearSimpleXYA,5,5,79,6,0.00788708,1.59736,0.00655716,0.596009,0.00536415,0.921994
LinearSimpleXYA,5,5,80,6,-0.00355623,1.41707,-0.0186077,1.94377,-0.0110381,0.886251
LinearSimpleXYA,5,5,81,6,0.00962603,1.24822,-0.0155188,1.22734,-0.0095158,0.915087
LinearSimpleXYA,5,5,82,6,0.00836832,0.950638,-0.0144115,2,-0.0174654,0.941497
LinearSimpleXYA,5,5,83,6,0.0121829,1.33704,0.000890817,0.973639,-0.00600273,0.9089
LinearSimpleXYA,5,5,84,6,0.00985767,1.24473,-0.0148685,1.75708,-0.00539495,0.895319
LinearSimpleXYA,5,5,85,6,0.00763736,1.0625,-0.00288199,1.56865,0.00313656,0.916471
LinearSimpleXYA,5,5,86,6,0.00413038,1.6827,-0.00984915,1.30203,0.00231172,0.854033
LinearSimpleXYA,5,5,87,6,0.00609824,1.31932,-0.000823904,1.53738,0.00734379,0.924654
LinearSimpleXYA,5,5,88,6,0.00392966,0.910893,-0.0075402,1.01331,0.0234598,0.955189
LinearSimpleXYA,5,5,89,6,-0.00058346,0.786573,-0.00814413,1.19544,0.0125487,0.939806
LinearSimpleXYA,5,5,90,6,0.0105369,1.45471,-0.013283,1.24733,-0.05,1.07202
LinearSimpleXYA,5,5,91,6,0.00776965,1.06356,-0.00333741,1.76441,0.000364304,0.946943
LinearSimpleXYA,5,5,92,6,0.0112705,1.50081,-0.00339677,1.15361,0.0138106,0.980362
LinearSimpleXYA,5,5,93,6,0.00961043,0.922607,-0.0154793,1.48954,-0.0163821,0.868079
LinearSimpleXYA,5,5,94,6,0.0140468,1.68042,-0.0112522,1.22057,-0.011191,0.90751
LinearSimpleXYA,5,5,95,6,-0.00331036,1.32484,-0.0142084,2,0.00127074,0.865062
LinearSimpleXYA,5,5,96,6,0.00647089,1.18887,0.000683279,2,-0.00969456,0.967466
LinearSimpleXYA,5,5,97,6,-0.00341284,1.40271,-0.00512099,2,0.0044009,0.907733
LinearSimpleXYA,5,5,98,6,0.0152791,1.12981,-0.02,1.72304,-0.0137669,0.884587
LinearSimpleXYA,5,5,99,6,0.00400689,1.22454,0.00803676,1.53485,-0.0110195,0.89319
LinearSimpleXYA,10,5,0,6,0.000113063,1.34431,-0.00650769,1.72414,-0.00490958,0.925856
LinearSimpleXYA,10,5,1,6,0.00992324,1.39022,-0.0115333,1.79999,-0.004985,0.890583
LinearSimpleXYA,10,5,2,6,0.00938149,1.23058,0.00312503,1.10281,0.00710909,0.953789
LinearSimpleXYA,10,5,3,6,0.0102372,1.20062,0.00112136,1.63966,-0.00242829,0.920094
LinearSimpleXYA,10,5,4,6,0.00281315,1.43891,0.00145863,1.13202,-0.00254384,0.892611
LinearSimpleXYA,10,5,5,6,0.0119862,1.26098,-0.00856337,1.64814,0.00716971,0.952718
LinearSimpleXYA,10,5,6,6,0.00886018,1.34196,-0.0103626,1.72793,-0.00796715,0.902749
LinearSimpleXYA,10,5,7,6,0.00653316,1.55618,-0.0126282,1.66008,-0.0029378,0.918498
LinearSimpleXYA,10,5,8,6,0.000196693,1.4715,-0.00777439,1.93313,0.00302576,0.916196
LinearSimpleXYA,10,5,9,6,0.00945483,1.41987,-0.00355594,1.10999,0.00710909,0.953789
LinearSimpleXYA,10,5,10,6,0.0115004,1.23383,0.00156549,1.40888,0.0044009,0.907733
LinearSimpleXYA,10,5,11,6,0.00611278,1.46931,-0.00368773,1.20027,0.00410533,0.940872
LinearSimpleXYA,10,5,12,6,0.00561669,1.58883,-0.00244872,1.24118,0.00536415,0.921994
LinearSimpleXYA,10,5,13,6,-0.000217889,1.37637,-0.0054521,1.60904,0.00213847,0.917735
LinearSimpleXYA,10,5,14,6,0.00565712,1.31296,-0.001582,1.7498,0.000869442,0.887427
LinearSimpleXYA,10,5,15,6,0.00780032,1.30023,-0.00729119,1.20517,0.00296818,0.915879
LinearSimpleXYA,10,5,16,6,0.00551898,1.24714,-0.0019186,1.55354,0.00387081,0.904685
LinearSimpleXYA,10,5,17,6,0.00843059,1.19504,-0.00233023,1.56878,-0.00392773,0.885111
LinearSimpleXYA,10,5,18,6,0.000270849,1.50268,-0.00228994,1.62399,-0.00328783,0.919626
LinearSimpleXYA,10,5,19,6,0.00855297,1.34558,-0.00187375,1.68797,-0.00393504,0.955715
LinearSimpleXYA,10,5,20,6,0.00545614,1.51444,-0.0140045,1.34479,-0.00755028,0.881056
LinearSimpleXYA,10,5,21,6,0.00816704,1.49181,0.000732798,1.21796,0.00414442,0.940676
LinearSimpleXYA,10,5,22,6,0.00681719,1.59903,-0.00176178,1.52893,-0.00436354,0.881849
LinearSimpleXYA,10,5,23,6,0.0135451,1.17801,-0.0151753,1.72756,-0.00493884,0.890395
LinearSimpleXYA,10,5,24,6,0.00767616,1.3344,0.0050023,1.46575,-0.00877321,0.900225
LinearSimpleXYA,10,5,25,6,0.0150355,1.37713,-0.00798046,1.57404,-0.00683244,0.912808
LinearSimpleXYA,10,5,26,6,0.00371434,1.55802,-0.00743788,1.73505,-0.00420668,0.881195
LinearSimpleXYA,10,5,27,6,-0.00735069,1.45411,-0.00119876,1.55911,0.0044009,0.907733
LinearSimpleXYA,10,5,28,6,0.00989814,1.22246,-0.00635199,1.85705,-0.00393504,0.955715
LinearSimpleXYA,10,5,29,6,-0.00369546,1.48341,-0.0017671,1.89474,-0.00505971,0.853335
LinearSimpleXYA,10,5,30,6,0.00429064,1.31846,-0.00946782,1.49505,0.00440992,0.907785
LinearSimpleXYA,10,5,31,6,0.00626567,1.64649,-0.00149896,1.31088,0.00241804,0.914689
LinearSimpleXYA,10,5,32,6,0.00930517,1.50188,-0.0114176,1.29783,-0.00294095,0.929882
LinearSimpleXYA,10,5,33,6,0.00330076,1.37078,-0.00774679,1.76823,-0.00939159,0.902994
LinearSimpleXYA,10,5,34,6,0.0164649,1.46788,-0.00218987,1.6015,-0.00168623,0.951981
LinearSimpleXYA,10,5,35,6,0.00991347,1.37317,0.00768695,1.45086,-0.00877321,0.900225
LinearSimpleXYA,10,5,36,6,0.0108717,1.45354,0.00273844,1.18519,0.00104053,0.930956
LinearSimpleXYA,10,5,37,6,0.00641275,1.20455,-0.00365651,1.64419,0.00322096,0.923543
LinearSimpleXYA,10,5,38,6,0.00496286,1.36732,8.2102e-05,1.51789,0.0173189,0.951632
LinearSimpleXYA,10,5,39,6,0.0073132,1.16223,-0.0143451,1.32131,0.00108971,0.945463
LinearSimpleXYA,10,5,40,6,0.00888867,1.56673,0.00303231,0.862151,0.00371934,0.94065
LinearSimpleXYA,10,5,41,6,0.00599676,1.21891,-0.00286,1.96268,-0.00456389,0.932227
LinearSimpleXYA,10,5,42,6,0.00579415,1.30962,-0.00858441,1.54921,-0.00051592,0.907415
LinearSimpleXYA,10,5,43,6,0.00436692,1.52518,0.00384556,1.38042,-0.0110195,0.89319
LinearSimpleXYA,10,5,44,6,0.0091066,1.16105,-0.00689862,1.46482,0.000364304,0.946943
LinearSimpleXYA,10,5,45,6,0.00546244,1.30755,0.000987493,1.09772,0.00231252,0.918669
LinearSimpleXYA,10,5,46,6,0.00970488,1.30188,-0.0113057,1.74376,-0.00940549,0.902859
LinearSimpleXYA,10,5,47,6,0.00787361,1.45019,-0.00389514,1.1143,-0.00151501,0.922954
LinearSimpleXYA,10,5,48,6,0.0140202,1.20426,-0.0097994,1.75346,-0.0106061,0.899207
LinearSimpleXYA,10,5,49,6,-0.00189026,1.37837,-0.00569935,1.52771,-0.000171758,0.881441
LinearSimpleXYA,10,5,50,6,0.00605471,1.57638,-0.0032812,1.48024,-0.0039038,0.899016
LinearSimpleXYA,10,5,51,6,-0.0112786,1.04535,-0.0124076,1.70256,0.00386485,0.939801
LinearSimpleXYA,10,5,52,6,0.00591915,1.41246,-0.00891029,1.14986,-0.0058792,0.874559
LinearSimpleXYA,10,5,53,6,0.006054,1.6271,-0.00660354,1.70348,-0.00381301,0.885802
LinearSimpleXYA,10,5,54,6,-0.000428672,1.43966,0.00414626,1.63227,-0.000158158,0.927203
LinearSimpleXYA,10,5,55,6,0.00975731,1.34607,-0.00422448,1.36027,-0.00123935,0.875302
LinearSimpleXYA,10,5,56,6,0.0031088,1.33433,-0.00926504,1.33896,-0.00446831,0.882286
LinearSimpleXYA,10,5,57,6,0.00473153,1.19787,-0.00255851,1.8759,-0.00796715,0.902749
LinearSimpleXYA,10,5,58,6,0.00819608,1.02819,-0.0105649,1.52105,0.00456034,0.90865
LinearSimpleXYA,10,5,59,6,0.00283303,1.37331,-0.00249008,1.10596,-0.00940803,0.88537
LinearSimpleXYA,10,5,60,6,0.0100951,1.44721,-0.00523759,1.64234,-0.00832614,0.898362
LinearSimpleXYA,10,5,61,6,0.00162343,1.54879,0.00147139,1.68478,-0.0115618,0.88003
LinearSimpleXYA,10,5,62,6,0.00508606,1.54041,-0.00286988,1.89942,-0.0100202,0.905421
LinearSimpleXYA,10,5,63,6,0.00250225,1.45497,-0.00646486,1.448,0.0010994,0.91216
LinearSimpleXYA,10,5,64,6,0.00469519,1.51588,0.00499555,1.39388,-0.0124956,0.888568
LinearSimpleXYA,10,5,65,6,0.00289855,1.33431,-0.00218315,1.81372,-0.00539495,0.895319
LinearSimpleXYA,10,5,66,6,0.00801661,1.26643,-0.000547206,1.89124,-0.00155336,0.939275
LinearSimpleXYA,10,5,67,6,0.00583584,1.41182,-0.00770553,1.92177,-0.00152574,0.904912
LinearSimpleXYA,10,5,68,6,0.000952163,1.43894,0.000125178,1.69126,-0.00189196,0.87155
LinearSimpleXYA,10,5,69,6,0.00204228,1.27617,-0.00675589,0.96253,0.0107728,0.944371
LinearSimpleXYA,10,5,70,6,0.00759583,1.32817,-0.00575539,1.26804,0.00189473,0.906697
LinearSimpleXYA,10,5,71,6,0.00144253,1.48158,-0.00230764,1.69633,-0.0110195,0.89319
LinearSimpleXYA,10,5,72,6,0.00677268,1.29282,-0.00218842,1.3466,0.0031614,0.900606
LinearSimpleXYA,10,5,73,6,0.00898863,1.16183,-0.00988346,1.59611,0.00262368,0.897514
LinearSimpleXYA,10,5,74,6,0.00293553,1.41296,-0.00441269,1.98178,-0.0160843,0.935863
LinearSimpleXYA,10,5,75,6,0.00672552,1.58588,0.00223421,1.17878,-0.00877321,0.900225
LinearSimpleXYA,10,5,76,6,-0.00158819,1.28562,-0.011961,1.73363,0.00704364,0.926157
LinearSimpleXYA,10,5,77,6,0.0140651,1.55577,-0.00160204,1.57291,-0.00195842,0.951682
LinearSimpleXYA,10,5,78,6,0.00938868,0.928582,-0.02,1.657,0.00545907,0.913817
LinearSimpleXYA,10,5,79,6,0.00414321,1.23229,-0.00734407,1.72573,-0.000945669,0.90635
LinearSimpleXYA,10,5,80,6,0.00239034,1.2513,-0.0101477,1.20893,-0.00222656,0.920725
LinearSimpleXYA,10,5,81,6,0.0036997,1.39303,-0.0132812,1.99521,-0.0110195,0.89319
LinearSimpleXYA,10,5,82,6,-0.000607748,1.37622,-0.0107578,1.79051,-0.00677495,0.891898
LinearSimpleXYA,10,5,83,6,0.00286613,1.37977,-0.00692746,1.22941,-0.00599185,0.875605
LinearSimpleXYA,10,5,84,6,0.00808961,1.07937,-0.00296694,1.62221,-0.00157525,0.922765
LinearSimpleXYA,10,5,85,6,0.00177833,1.39681,-0.00140437,1.4724,-0.00877321,0.900225
LinearSimpleXYA,10,5,86,6,0.00315072,1.49425,-0.00740085,1.52574,0.00828071,0.929224
LinearSimpleXYA,10,5,87,6,0.00566135,1.56425,0.00211753,1.56485,-0.00877321,0.900225
LinearSimpleXYA,10,5,88,6,0.00789504,1.56736,-0.00143806,1.59435,-0.00391881,0.899087
LinearSimpleXYA,10,5,89,6,0.0100646,1.44509,-0.00521854,1.23603,-0.00161949,0.922626
LinearSimpleXYA,10,5,90,6,0.004432,1.57953,0.00399952,1.01846,-0.0110195,0.89319
LinearSimpleXYA,10,5,91,6,0.00889187,1.30914,-0.00728924,1.47944,-0.00704907,0.925627
LinearSimpleXYA,10,5,92,6,0.0151848,1.23567,-0.00577246,1.62375,-0.0110195,0.89319
LinearSimpleXYA,10,5,93,6,0.00325043,1.50834,0.003872,1.60704,0.00623606,0.918285
LinearSimpleXYA,10,5,94,6,0.00345474,1.46539,-0.00747619,1.1773,0.00219823,0.914144
LinearSimpleXYA,10,5,95,6,0.00740436,1.52758,-0.00969386,2,-0.0070268,0.91739
LinearSimpleXYA,10,5,96,6,0.012068,1.29029,-0.00862355,1.74222,-0.00452215,0.927405
LinearSimpleXYA,10,5,97,6,0.0100947,1.43673,-0.00562466,1.61582,-0.00721751,0.893742
LinearSimpleXYA,10,5,98,6,0.00229393,1.50095,-0.012194,1.65817,-0.00071033,0.892144
LinearSimpleXYA,10,5,99,6,0.0106719,1.19411,0.00394811,1.24897,0.00416723,0.919026
LinearSimpleXYA,15,5,0,6,-7.65121e-06,1.28739,-0.00784051,1.71128,-7.30058e-05,0.927469
LinearSimpleXYA,15,5,1,6,0.00874591,1.35882,-0.00267089,1.43985,0.00324501,0.941065
LinearSimpleXYA,15,5,2,6,0.00800033,1.38632,-0.00331432,1.34371,0.000705051,0.929906
LinearSimpleXYA,15,5,3,6,0.00775675,1.27499,-0.00871159,1.24614,-0.00300412,0.865155
LinearSimpleXYA,15,5,4,6,0.00426175,1.57832,-0.00344366,1.73354,-0.00191168,0.932643
LinearSimpleXYA,15,5,5,6,0.00288558,1.51626,-0.000970451,1.55258,-0.00582327,0.875015
LinearSimpleXYA,15,5,6,6,0.00552182,1.38026,-0.00632854,1.42186,-0.00334537,0.883894
LinearSimpleXYA,15,5,7,6,0.00151507,1.41807,-0.0042305,1.60951,0.000329151,0.908027
LinearSimpleXYA,15,5,8,6,0.00981623,1.39776,0.000190149,1.45834,-0.00904259,0.886276
LinearSimpleXYA,15,5,9,6,0.00928415,1.20867,-0.00957087,1.51955,0.00171447,0.912945
LinearSimpleXYA,15,5,10,6,0.00904334,1.56907,-0.00430274,1.52664,-0.000514954,0.941706
LinearSimpleXYA,15,5,11,6,0.00463959,1.10012,-0.0163133,1.58459,-0.000981907,0.924623
LinearSimpleXYA,15,5,12,6,0.0103089,1.23646,0.00064071,1.42783,0.0044009,0.907733
LinearSimpleXYA,15,5,13,6,0.00788419,1.39093,-0.00484375,1.59156,0.00202304,0.894061
LinearSimpleXYA,15,5,14,6,0.00767694,1.50883,-0.00677471,1.62995,0.00319137,0.916607
LinearSimpleXYA,15,5,15,6,0.00327475,1.51313,-0.00418326,1.43298,0.00259738,0.920197
LinearSimpleXYA,15,5,16,6,0.00380353,1.49476,-0.00349451,1.52819,0.00209597,0.89448
LinearSimpleXYA,15,5,17,6,-0.000729845,1.45727,-0.00547515,1.75279,-0.00200116,0.903733
LinearSimpleXYA,15,5,18,6,0.00629974,1.36573,-0.00933668,1.71742,-0.00797299,0.902773
LinearSimpleXYA,15,5,19,6,0.00791551,1.2953,-0.00545009,1.4918,-0.00254384,0.892611
LinearSimpleXYA,15,5,20,6,0.00317154,1.5259,-0.00524638,1.63855,-0.00461272,0.932113
LinearSimpleXYA,15,5,21,6,0.00171718,1.498,2.44859e-05,1.16374,-0.00189196,0.87155
LinearSimpleXYA,15,5,22,6,0.0103005,1.36362,0.00178896,1.39293,-0.00600273,0.9089
LinearSimpleXYA,15,5,23,6,0.0136896,1.36624,-0.00589445,1.69323,-0.0034243,0.916975
LinearSimpleXYA,15,5,24,6,0.00795093,1.36212,-0.00707785,1.76056,-0.0100202,0.905421
LinearSimpleXYA,15,5,25,6,0.00768305,1.42471,-0.0054331,1.71136,-0.0065695,0.914369
LinearSimpleXYA,15,5,26,6,0.0101334,1.35704,-0.00731761,1.35164,-0.0068844,0.878727
LinearSimpleXYA,15,5,27,6,0.00249275,1.41028,-0.00472521,1.43892,-0.00446831,0.882286
LinearSimpleXYA,15,5,28,6,0.00672225,1.48278,-0.00883489,1.75407,0.00332857,0.901567
LinearSimpleXYA,15,5,29,6,0.00554597,1.36125,-0.00157253,1.77404,0.000193274,0.907298
LinearSimpleXYA,15,5,30,6,0.00498199,1.4728,-0.00749413,1.63695,-0.00599185,0.875605
LinearSimpleXYA,15,5,31,6,0.000640279,1.45418,0.00121414,1.33641,-0.000277316,0.904773
LinearSimpleXYA,15,5,32,6,0.00634923,1.42707,-0.00494202,1.65971,0.000571541,0.94652
LinearSimpleXYA,15,5,33,6,0.00683601,1.40209,0.0031544,1.53163,-0.00877321,0.900225
LinearSimpleXYA,15,5,34,6,0.00629699,1.39631,-0.001369,1.29164,0.00200463,0.917017
LinearSimpleXYA,15,5,35,6,0.00604932,1.38863,-0.00184129,1.47012,0.00181737,0.916012
LinearSimpleXYA,15,5,36,6,0.00698047,1.33739,-0.00810887,1.38902,0.00217204,0.894917
LinearSimpleXYA,15,5,37,6,-0.00223978,1.45049,-0.00735251,1.46775,-0.00192389,0.895938
LinearSimpleXYA,15,5,38,6,0.00778394,1.21325,-0.0115472,1.80436,0.000847809,0.910796
LinearSimpleXYA,15,5,39,6,0.00483897,1.335,-0.00848446,1.73153,0.00542347,0.913613
LinearSimpleXYA,15,5,40,6,0.00712299,1.29919,-0.00449538,1.65028,-0.00655298,0.919285
LinearSimpleXYA,15,5,41,6,0.00711177,1.4059,-0.00196062,1.37174,0.00259738,0.920197
LinearSimpleXYA,15,5,42,6,0.00755476,1.33519,-0.00553916,1.36015,-0.00446831,0.882286
LinearSimpleXYA,15,5,43,6,0.005901,1.17571,-0.00505212,1.48997,0.0044009,0.907733
LinearSimpleXYA,15,5,44,6,0.00541464,1.21247,-0.00564327,1.65434,-0.00271479,0.919197
LinearSimpleXYA,15,5,45,6,0.00563894,1.60424,-0.00278378,1.47947,0.00456034,0.90865
LinearSimpleXYA,15,5,46,6,0.000744743,1.55599,-0.00162201,1.68872,-0.00514711,0.878643
LinearSimpleXYA,15,5,47,6,0.00483159,1.48535,-0.00331542,1.73941,0.000287724,0.943585
LinearSimpleXYA,15,5,48,6,-0.000222433,1.37125,-0.00851743,2,-0.00537183,0.924007
LinearSimpleXYA,15,5,49,6,0.0130899,1.32611,-0.00657454,1.50242,0.00386485,0.939801
LinearSimpleXYA,15,5,50,6,0.00594576,1.34646,-0.00450242,1.36089,-0.00446831,0.882286
LinearSimpleXYA,15,5,51,6,0.00421722,1.2765,-0.00572808,1.34231,0.00862733,0.930084
LinearSimpleXYA,15,5,52,6,0.00613577,1.51561,-0.00850221,1.7003,0.00235364,0.909953
LinearSimpleXYA,15,5,53,6,0.00371492,1.56053,-0.00870225,1.71326,0.00342269,0.902108
LinearSimpleXYA,15,5,54,6,0.00659029,1.35509,-0.00700868,1.45925,-0.00446831,0.882286
LinearSimpleXYA,15,5,55,6,0.00594755,1.30848,-0.00651119,1.49805,0.00104053,0.930956
LinearSimpleXYA,15,5,56,6,0.00555226,1.27832,-0.0098662,1.59955,-0.00278238,0.918985
LinearSimpleXYA,15,5,57,6,0.00395506,1.33943,-0.00796399,1.39912,0.00129228,0.889859
LinearSimpleXYA,15,5,58,6,0.0060235,1.34754,-0.00105688,1.30807,0.00148875,0.932364
LinearSimpleXYA,15,5,59,6,-0.00151623,1.40626,-0.00579541,1.89989,-0.00135767,0.905328
LinearSimpleXYA,15,5,60,6,0.00323257,1.45055,-0.00340892,1.25518,-0.00208526,0.872355
LinearSimpleXYA,15,5,61,6,0.00509745,1.48475,-0.00217558,1.53319,-0.00877321,0.900225
LinearSimpleXYA,15,5,62,6,0.0052384,1.34058,-0.00140717,1.16108,0.00123497,0.911756
LinearSimpleXYA,15,5,63,6,0.00481844,1.496,-0.00499727,1.38173,0.00536415,0.921994
LinearSimpleXYA,15,5,64,6,0.00562896,1.5057,-0.0036507,1.42413,-0.00446831,0.882286
LinearSimpleXYA,15,5,65,6,0.0101099,1.22168,-0.00523603,1.33122,-0.00300412,0.865155
LinearSimpleXYA,15,5,66,6,0.0025446,1.42927,-0.00390449,1.24262,-0.00102654,0.924483
LinearSimpleXYA,15,5,67,6,0.00351359,1.25215,-0.00355781,1.63673,-0.00681831,0.91561
LinearSimpleXYA,15,5,68,6,0.00384126,1.58873,-0.00914449,1.6258,0.00294475,0.915995
LinearSimpleXYA,15,5,69,6,0.00267845,1.45772,-0.00610437,1.86919,-0.00877321,0.900225
LinearSimpleXYA,15,5,70,6,0.00502256,1.31751,-0.0029525,1.32331,0.0044009,0.907733
LinearSimpleXYA,15,5,71,6,0.00941063,1.36589,-0.00437761,1.49385,0.000702373,0.910029
LinearSimpleXYA,15,5,72,6,0.00933827,1.53359,0.000792579,1.4977,0.00259738,0.920197
LinearSimpleXYA,15,5,73,6,0.00680857,1.32303,-0.00718918,1.4262,-0.00167809,0.897257
LinearSimpleXYA,15,5,74,6,0.00641128,1.25588,-0.00755682,1.66606,-0.00898653,0.906907
LinearSimpleXYA,15,5,75,6,0.00188555,1.32116,-0.000796427,1.3295,-0.00446831,0.882286
LinearSimpleXYA,15,5,76,6,0.00545114,1.37098,-0.00237224,1.20827,-0.00305532,0.91813
LinearSimpleXYA,15,5,77,6,0.00230454,1.41892,-0.00174022,1.04948,-0.00582327,0.875015
LinearSimpleXYA,15,5,78,6,0.00725891,1.47184,-0.00803707,1.64224,0.00313656,0.916471
LinearSimpleXYA,15,5,79,6,0.00334225,1.45532,-0.000681844,1.3054,-0.000502741,0.926124
LinearSimpleXYA,15,5,80,6,0.00178537,1.36211,-0.00351682,1.88524,-0.00509752,0.925104
LinearSimpleXYA,15,5,81,6,0.00749588,1.28312,-0.00843662,1.57166,0.000982751,0.911131
LinearSimpleXYA,15,5,82,6,0.00710875,1.44938,-0.00728029,1.31731,-0.00446809,0.882285
LinearSimpleXYA,15,5,83,6,0.00501239,1.23582,-0.00424491,1.58668,0.0044009,0.907733
LinearSimpleXYA,15,5,84,6,0.00272091,1.44736,-0.0104673,1.78975,-0.00904261,0.886276
LinearSimpleXYA,15,5,85,6,0.00532964,1.39816,-0.00707519,1.66421,-0.0064459,0.919713
LinearSimpleXYA,15,5,86,6,0.011744,1.43656,-0.00316695,1.61939,0.00104053,0.930956
LinearSimpleXYA,15,5,87,6,0.00353477,1.49079,-0.00163064,1.36686,-0.00877321,0.900225
LinearSimpleXYA,15,5,88,6,0.00222912,1.52193,-0.00651026,1.34402,0.00536415,0.921994
LinearSimpleXYA,15,5,89,6,0.00120722,1.57245,-0.00217545,1.34777,-0.00452748,0.870483
LinearSimpleXYA,15,5,90,6,0.00363577,1.41806,-0.00576483,1.7033,0.00108971,0.945463
LinearSimpleXYA,15,5,91,6,0.00829463,1.32141,-0.00657054,1.5432,-0.00940549,0.902859
LinearSimpleXYA,15,5,92,6,6.86583e-06,1.37019,-0.000776508,1.3807,-0.00677495,0.891898
LinearSimpleXYA,15,5,93,6,0.00474158,1.51915,3.8548e-05,1.29591,0.00200198,0.893939
LinearSimpleXYA,15,5,94,6,0.000772857,1.21389,-0.00976028,1.94567,0.00119002,0.945598
LinearSimpleXYA,15,5,95,6,0.00485575,1.09413,-0.010452,1.8325,-0.00213191,0.931021
LinearSimpleXYA,15,5,96,6,0.00450485,1.38714,-0.000836171,1.59961,-0.00311991,0.917928
LinearSimpleXYA,15,5,97,6,0.00663207,1.44875,-0.00263521,1.51807,-0.00487502,0.912432
LinearSimpleXYA,15,5,98,6,0.00752699,1.4517,-0.00592831,1.47486,-0.00419776,0.881223
LinearSimpleXYA,15,5,99,6,0.00476761,1.34362,-0.00672563,1.52803,-0.00421203,0.881179
LinearSimpleXYA,20,5,0,6,0.00360106,1.42969,-0.00826794,1.62267,0.00194194,0.913509
LinearSimpleXYA,20,5,1,6,0.0052005,1.49096,-0.00142164,1.48989,-0.00877321,0.900225
LinearSimpleXYA,20,5,2,6,0.00203772,1.41178,-0.0056387,1.59254,0.00241562,0.896318
LinearSimpleXYA,20,5,3,6,0.00649484,1.40932,-0.00508711,1.49604,-0.00446831,0.882286
LinearSimpleXYA,20,5,4,6,0.00232543,1.31144,-0.00451782,1.8354,-0.00334793,0.917214
LinearSimpleXYA,20,5,5,6,0.00319305,1.45413,-0.00100823,1.58071,-0.00884237,0.885575
LinearSimpleXYA,20,5,6,6,0.00388526,1.37235,-0.00613122,1.4928,7.56127e-05,0.906666
LinearSimpleXYA,20,5,7,6,0.00416467,1.41032,-0.00708804,1.30125,-0.00446831,0.882286
LinearSimpleXYA,20,5,8,6,0.00531977,1.35047,-0.00976674,1.80692,-0.00320085,0.917674
LinearSimpleXYA,20,5,9,6,0.00645262,1.36736,-0.00654142,1.4883,-0.00381301,0.885802
LinearSimpleXYA,20,5,10,6,0.00539826,1.2592,-0.00547149,1.4488,0.000223876,0.907462
LinearSimpleXYA,20,5,11,6,0.0067854,1.4716,-0.0057743,1.39809,0.000866994,0.910844
LinearSimpleXYA,20,5,12,6,0.00663047,1.28949,-0.00377387,1.46776,3.66455e-05,0.906453
LinearSimpleXYA,20,5,13,6,0.00489419,1.35748,-0.00677424,1.46291,-0.00677495,0.891898
LinearSimpleXYA,20,5,14,6,0.00342869,1.42338,-0.00259242,1.78073,-0.00130758,0.923605
LinearSimpleXYA,20,5,15,6,0.00724674,1.31759,-0.00826521,1.76611,-0.00231413,0.920451
LinearSimpleXYA,20,5,16,6,0.0042013,1.45796,-0.00300593,1.55148,-0.00378139,0.915856
LinearSimpleXYA,20,5,17,6,0.00443333,1.37301,-0.00253813,1.43493,-0.000227041,0.905042
LinearSimpleXYA,20,5,18,6,0.00706779,1.49282,-0.00512343,1.47799,-0.00446831,0.882286
LinearSimpleXYA,20,5,19,6,0.00633265,1.38691,-0.00417335,1.54144,-0.00553126,0.910377
LinearSimpleXYA,20,5,20,6,0.00277922,1.34116,-0.00538928,1.66645,0.00164045,0.912762
LinearSimpleXYA,20,5,21,6,0.00620433,1.36268,-0.00936591,1.6741,-0.00940548,0.902859
LinearSimpleXYA,20,5,22,6,0.00361454,1.45824,-0.00178684,1.35127,0.00134009,0.912017
LinearSimpleXYA,20,5,23,6,0.00284471,1.50173,-0.00402109,1.53054,0.00167651,0.915256
LinearSimpleXYA,20,5,24,6,0.00412326,1.46751,-0.00327421,1.42674,0.00313656,0.916471
LinearSimpleXYA,20,5,25,6,0.00388336,1.31242,-0.00968631,1.47148,0.000843231,0.910785
LinearSimpleXYA,20,5,26,6,0.00818591,1.33657,-0.00813185,1.56795,-0.00677495,0.891898
LinearSimpleXYA,20,5,27,6,0.00306358,1.41233,-0.00209122,1.59175,-0.00677492,0.891898
LinearSimpleXYA,20,5,28,6,0.00121147,1.41982,-0.00417429,1.60309,-0.000191716,0.905232
LinearSimpleXYA,20,5,29,6,0.000868541,1.41915,-0.00422095,1.44609,-0.00170657,0.897104
LinearSimpleXYA,20,5,30,6,0.00620054,1.42653,-0.00313587,1.56044,-0.00796715,0.902749
LinearSimpleXYA,20,5,31,6,0.00251822,1.39396,-0.0066241,1.51986,0.00056757,0.909306
LinearSimpleXYA,20,5,32,6,0.0064398,1.43038,-0.00280835,1.58047,-0.00796715,0.902749
LinearSimpleXYA,20,5,33,6,0.00745525,1.42727,-0.00436029,1.53777,-0.00113404,0.900176
LinearSimpleXYA,20,5,34,6,0.00310693,1.47862,-0.00047146,1.55177,-0.00677495,0.891898
LinearSimpleXYA,20,5,35,6,0.00563782,1.3932,-0.00887512,1.66098,-0.00586207,0.894161
LinearSimpleXYA,20,5,36,6,0.00425927,1.41674,-0.00513063,1.41902,-0.00141615,0.898662
LinearSimpleXYA,20,5,37,6,0.00839493,1.35915,-0.00220299,1.33673,0.000221664,0.90745
LinearSimpleXYA,20,5,38,6,0.00733032,1.30579,-0.00756373,1.70606,-0.0037028,0.916103
LinearSimpleXYA,20,5,39,6,0.00619737,1.46028,-0.00469435,1.48078,0.00170972,0.912933
LinearSimpleXYA,20,5,40,6,0.00224592,1.49772,-0.00233726,1.67581,-0.00420668,0.881195
LinearSimpleXYA,20,5,41,6,0.00586062,1.43632,-0.00862699,1.76022,-0.00346563,0.916845
LinearSimpleXYA,20,5,42,6,0.00431094,1.32527,-0.00800095,1.54058,0.00313656,0.916471
LinearSimpleXYA,20,5,43,6,0.00145227,1.3596,-0.00866411,1.44519,0.000519472,0.909048
LinearSimpleXYA,20,5,44,6,0.00674878,1.38086,-0.00596443,1.48702,-0.00251734,0.892754
LinearSimpleXYA,20,5,45,6,0.00445575,1.42257,-0.00196546,1.50543,0.000282246,0.928582
LinearSimpleXYA,20,5,46,6,0.00517462,1.47346,-0.00403117,1.38641,-0.00446831,0.882286
LinearSimpleXYA,20,5,47,6,0.00561307,1.28709,-0.00471705,1.42852,0.000127442,0.906944
LinearSimpleXYA,20,5,48,6,0.00941801,1.37371,-0.00473667,1.45494,0.00175478,0.913045
LinearSimpleXYA,20,5,49,6,0.00889427,1.19522,-0.0073752,1.5657,0.00164823,0.912781
LinearSimpleXYA,20,5,50,6,0.00804396,1.3379,-0.00179985,1.47388,0.00168042,0.912861
LinearSimpleXYA,20,5,51,6,0.00242815,1.48343,-0.00538417,1.38806,0.00215998,0.91405
LinearSimpleXYA,20,5,52,6,0.0069928,1.23498,-0.00979425,1.46961,5.5027e-05,0.906556
LinearSimpleXYA,20,5,53,6,0.00436453,1.49813,0.000744684,1.45812,-0.00877321,0.900225
LinearSimpleXYA,20,5,54,6,0.00424052,1.36068,-0.00754512,1.5273,0.000843231,0.910785
LinearSimpleXYA,20,5,55,6,0.00626065,1.44159,-0.00212122,1.638,-0.00544137,0.910658
LinearSimpleXYA,20,5,56,6,0.00425583,1.32943,-0.00950934,1.44552,-8.91782e-05,0.905782
LinearSimpleXYA,20,5,57,6,0.00694808,1.42672,-0.00379156,1.37641,0.00412825,0.940626
LinearSimpleXYA,20,5,58,6,0.00268307,1.3859,-0.00390847,1.77323,-0.00196731,0.921537
LinearSimpleXYA,20,5,59,6,0.00875396,1.28934,-0.0054303,1.53725,0.000686739,0.929848
LinearSimpleXYA,20,5,60,6,0.00634447,1.32826,-0.00888183,1.51705,-6.88832e-05,0.905891
LinearSimpleXYA,20,5,61,6,0.00309862,1.40774,-0.00192387,1.62955,-0.00677495,0.891898
LinearSimpleXYA,20,5,62,6,0.00712827,1.3261,-0.00210483,1.3316,-0.00446835,0.882284
LinearSimpleXYA,20,5,63,6,0.00365194,1.31305,-0.00217615,1.60971,0.000565495,0.909295
LinearSimpleXYA,20,5,64,6,0.00622625,1.4585,-0.00526409,1.67968,-0.00358077,0.931169
LinearSimpleXYA,20,5,65,6,0.00296402,1.48679,-0.00167781,1.32777,-0.00189196,0.87155
LinearSimpleXYA,20,5,66,6,0.00420752,1.42492,-0.00560207,1.51581,0.000843231,0.910785
LinearSimpleXYA,20,5,67,6,0.00204169,1.39854,-0.00730504,1.56467,0.000237255,0.907534
LinearSimpleXYA,20,5,68,6,0.00758231,1.37758,-0.00802617,1.75227,-0.00384676,0.915652
LinearSimpleXYA,20,5,69,6,0.0061086,1.43541,-0.00440162,1.54754,0.00104053,0.930956
LinearSimpleXYA,20,5,70,6,0.00568984,1.40851,-0.00453109,1.38968,0.00623606,0.918285
LinearSimpleXYA,20,5,71,6,0.00457905,1.40871,-0.00671656,1.60327,0.00520557,0.911662
LinearSimpleXYA,20,5,72,6,0.00424058,1.30833,-0.00361513,1.90741,-0.0031888,0.917712
LinearSimpleXYA,20,5,73,6,0.00420054,1.38571,-0.0054549,1.60321,0.00313656,0.916471
LinearSimpleXYA,20,5,74,6,0.00374675,1.48433,-0.00432973,1.55025,0.00228115,0.9185
LinearSimpleXYA,20,5,75,6,0.00898845,1.45546,-0.00165149,1.48756,0.000352456,0.928802
LinearSimpleXYA,20,5,76,6,0.00507639,1.30372,-0.00245331,1.62727,9.57769e-06,0.906312
LinearSimpleXYA,20,5,77,6,0.00477782,1.48497,-0.00331333,1.53985,-0.00189196,0.87155
LinearSimpleXYA,20,5,78,6,0.00499822,1.39467,-0.00434236,1.65953,0.00265977,0.915289
LinearSimpleXYA,20,5,79,6,0.00214258,1.38968,-0.00480195,1.62242,0.000232391,0.907508
LinearSimpleXYA,20,5,80,6,0.00492344,1.43227,-0.00374001,1.64581,0.000703188,0.910034
LinearSimpleXYA,20,5,81,6,0.00651133,1.36255,-0.00539098,1.48825,-0.00118047,0.899927
LinearSimpleXYA,20,5,82,6,0.0047116,1.47071,-0.00354826,1.63266,-0.00517737,0.922239
LinearSimpleXYA,20,5,83,6,0.00418681,1.43328,-0.00676833,1.60304,-0.000188782,0.905248
LinearSimpleXYA,20,5,84,6,0.004793,1.38596,-0.00543834,1.43538,0.00313656,0.916471
LinearSimpleXYA,20,5,85,6,0.00556327,1.4468,-0.00559463,1.50602,-0.00677495,0.891898
LinearSimpleXYA,20,5,86,6,0.00356905,1.34415,-0.00229602,1.58862,-0.000720822,0.902393
LinearSimpleXYA,20,5,87,6,0.0027058,1.40502,-0.0042704,1.64597,-0.000676433,0.92558
LinearSimpleXYA,20,5,88,6,0.0037258,1.42509,-0.00660704,1.3849,0.00456034,0.90865
LinearSimpleXYA,20,5,89,6,0.00222097,1.46501,8.43844e-05,1.52454,-0.00675454,0.891789
LinearSimpleXYA,20,5,90,6,0.0071231,1.39582,-0.00308001,1.62679,-0.00329441,0.917381
LinearSimpleXYA,20,5,91,6,0.00482069,1.35802,-0.0074644,1.46077,0.00566214,0.914985
LinearSimpleXYA,20,5,92,6,0.00847962,1.19456,-0.00820438,1.38437,-0.000708768,0.902458
LinearSimpleXYA,20,5,93,6,0.00724135,1.27256,-0.00685239,1.39332,0.00237459,0.914582
LinearSimpleXYA,20,5,94,6,0.00775073,1.4465,-0.00540616,1.72773,-0.00358264,0.931161
LinearSimpleXYA,20,5,95,6,0.00533849,1.46334,-0.00383136,1.59554,-0.00398446,0.915221
LinearSimpleXYA,20,5,96,6,0.00620474,1.47851,-0.00166176,1.44958,-0.00877321,0.900225
LinearSimpleXYA,20,5,97,6,0.00156218,1.39173,-0.00578109,1.56043,0.000262459,0.907669
LinearSimpleXYA,20,5,98,6,0.00569005,1.36726,-0.00755925,1.50846,0.000843231,0.910785
LinearSimpleXYA,20,5,99,6,0.00635816,1.44547,-0.00426027,1.4107,-0.00217693,0.89458
