MethodName,CountLearning,CountTest,Id,InitLearning,Learning,InitValidation,Validation
ScalarXYZ,3,22,0,0.748588,0.31177,1.01457,1.33255
ScalarXYZ,3,22,1,0.554355,0.347235,1.03257,0.882946
ScalarXYZ,3,22,2,0.825657,0.314941,1.00563,0.84764
ScalarXYZ,3,22,3,0.431587,0.423908,1.04195,1.10109
ScalarXYZ,3,22,4,0.771526,0.620279,1.01345,1.27922
ScalarXYZ,3,22,5,0.62731,0.494637,1.02594,0.828447
ScalarXYZ,3,22,6,0.464231,0.460479,1.04089,1.08313
ScalarXYZ,3,22,7,0.655566,0.325219,1.02589,0.858869
ScalarXYZ,3,22,8,1.11295,0.618158,0.953463,1.34672
ScalarXYZ,3,22,9,1.7423,1.04244,0.834488,1.00636
ScalarXYZ,7,18,0,0.955647,0.803004,0.967937,0.788805
ScalarXYZ,7,18,1,1.22124,0.809802,0.875755,1.02553
ScalarXYZ,7,18,2,0.566673,0.436676,1.10078,0.890042
ScalarXYZ,7,18,3,0.410654,0.407406,1.13361,1.19256
ScalarXYZ,7,18,4,1.44401,0.976802,0.700152,0.965527
ScalarXYZ,7,18,5,0.772413,0.537678,1.03946,0.918565
ScalarXYZ,7,18,6,0.87981,0.746794,0.999748,0.872381
ScalarXYZ,7,18,7,0.860369,0.700635,1.01699,0.920703
ScalarXYZ,7,18,8,0.89728,0.792932,0.992633,0.876984
ScalarXYZ,7,18,9,0.761857,0.480363,1.0434,0.921039
ScalarXYZ,11,14,0,1.10425,0.792144,0.859645,1.56792
ScalarXYZ,11,14,1,0.64316,0.373957,1.17242,1.03228
ScalarXYZ,11,14,2,0.748265,0.628566,1.1229,0.922134
ScalarXYZ,11,14,3,1.13964,0.883833,0.807552,0.723488
ScalarXYZ,11,14,4,1.18508,1.03475,0.740202,0.470843
ScalarXYZ,11,14,5,0.854527,0.708273,1.02543,0.840881
ScalarXYZ,11,14,6,0.650135,0.607091,1.17114,0.954498
ScalarXYZ,11,14,7,1.0085,0.883799,0.953308,0.671153
ScalarXYZ,11,14,8,0.618315,0.427746,1.18301,0.976947
ScalarXYZ,11,14,9,0.716551,0.39215,1.13074,0.997253
ScalarXYZ,15,10,0,1.07066,0.82491,0.759714,0.649839
ScalarXYZ,15,10,1,1.05013,0.738622,0.822568,1.80968
ScalarXYZ,15,10,2,0.672059,0.587455,1.29116,1.05656
ScalarXYZ,15,10,3,1.10472,0.910166,0.663519,0.445877
ScalarXYZ,15,10,4,0.989899,0.748862,0.930205,0.880147
ScalarXYZ,15,10,5,1.09477,0.909858,0.690298,0.434963
ScalarXYZ,15,10,6,1.14461,0.889623,0.530156,0.522635
ScalarXYZ,15,10,7,0.962029,0.852146,0.9732,0.745149
ScalarXYZ,15,10,8,0.762437,0.630095,1.18172,0.971248
ScalarXYZ,15,10,9,0.607196,0.45349,1.34057,1.10471
ScalarXYZ,19,6,0,0.724393,0.495162,1.44887,1.32281
ScalarXYZ,19,6,1,1.0209,0.828297,0.654732,0.493313
ScalarXYZ,19,6,2,1.02076,0.818193,0.669973,0.549923
ScalarXYZ,19,6,3,0.682138,0.483405,1.52698,1.36821
ScalarXYZ,19,6,4,0.626481,0.423667,1.62111,1.39279
ScalarXYZ,19,6,5,0.974718,0.763158,0.911279,0.901637
ScalarXYZ,19,6,6,0.999767,0.732462,0.773733,0.820269
ScalarXYZ,19,6,7,0.791768,0.613234,1.31881,1.14013
ScalarXYZ,19,6,8,0.776902,0.576226,1.35761,1.19149
ScalarXYZ,19,6,9,0.926017,0.721528,1.06753,1.18907
ProportionalXYZ,3,22,0,0.421493,0.127917,1.04367,1.40491
ProportionalXYZ,3,22,1,0.605119,0.434578,1.03157,0.919109
ProportionalXYZ,3,22,2,0.978232,0.184462,0.985526,0.840544
ProportionalXYZ,3,22,3,0.95496,0.0783078,0.988892,0.956226
ProportionalXYZ,3,22,4,0.330651,0.15277,1.05017,0.914653
ProportionalXYZ,3,22,5,0.391635,0,1.04586,0.824957
ProportionalXYZ,3,22,6,1.82422,0.515864,0.808665,1.48288
ProportionalXYZ,3,22,7,0.387512,0.146283,1.0457,0.963948
ProportionalXYZ,3,22,8,0.837089,0.46043,1.00304,1.28157
ProportionalXYZ,3,22,9,0.870391,0.0640476,0.998035,0.884103
ProportionalXYZ,7,18,0,0.822957,0.421597,1.03026,0.900815
ProportionalXYZ,7,18,1,0.51034,0.264833,1.11861,0.940539
ProportionalXYZ,7,18,2,0.600931,0.382798,1.09474,1.00812
ProportionalXYZ,7,18,3,1.05672,0.734421,0.925064,0.754874
ProportionalXYZ,7,18,4,0.573027,0.301551,1.10209,0.884221
ProportionalXYZ,7,18,5,1.22426,0.767971,0.870637,1.03704
ProportionalXYZ,7,18,6,1.40492,0.89999,0.732899,1.0948
ProportionalXYZ,7,18,7,0.7293,0.311782,1.06249,0.923942
ProportionalXYZ,7,18,8,0.676173,0.276555,1.07483,0.915458
ProportionalXYZ,7,18,9,0.682288,0.0992478,1.07714,1.02205
ProportionalXYZ,11,14,0,1.11266,0.799257,0.83357,1.41332
ProportionalXYZ,11,14,1,0.875092,0.516766,1.02243,0.96551
ProportionalXYZ,11,14,2,0.874704,0.629703,1.02243,0.81179
ProportionalXYZ,11,14,3,0.897244,0.604124,1.00437,0.835442
ProportionalXYZ,11,14,4,1.11229,0.783756,0.842137,1.19596
ProportionalXYZ,11,14,5,0.760338,0.360361,1.10873,1.1339
ProportionalXYZ,11,14,6,0.832783,0.460811,1.05169,0.999051
ProportionalXYZ,11,14,7,1.09071,0.69711,0.874058,1.23885
ProportionalXYZ,11,14,8,1.11168,0.787098,0.84418,0.927383
ProportionalXYZ,11,14,9,0.502832,0.285585,1.23031,1.07729
ProportionalXYZ,15,10,0,0.593289,0.347765,1.35284,1.17801
ProportionalXYZ,15,10,1,1.04148,0.74684,0.828141,1.28447
ProportionalXYZ,15,10,2,0.577439,0.326851,1.36498,1.21241
ProportionalXYZ,15,10,3,1.06823,0.785048,0.752975,0.55851
ProportionalXYZ,15,10,4,0.696232,0.347416,1.26958,1.11058
ProportionalXYZ,15,10,5,0.816322,0.362077,1.12777,1.16909
ProportionalXYZ,15,10,6,1.02186,0.746028,0.878133,0.783562
ProportionalXYZ,15,10,7,1.12732,0.794353,0.592519,0.649837
ProportionalXYZ,15,10,8,1.05745,0.845007,0.770637,0.396946
ProportionalXYZ,15,10,9,0.67037,0.515788,1.29414,0.965066
ProportionalXYZ,19,6,0,0.958643,0.698328,0.976223,0.940911
ProportionalXYZ,19,6,1,1.01819,0.76423,0.677547,0.438406
ProportionalXYZ,19,6,2,0.764037,0.541641,1.37054,1.14345
ProportionalXYZ,19,6,3,0.797675,0.519909,1.30653,1.16309
ProportionalXYZ,19,6,4,0.716365,0.458339,1.47877,1.29318
ProportionalXYZ,19,6,5,0.983472,0.733426,0.827059,0.590341
ProportionalXYZ,19,6,6,0.723546,0.437533,1.45495,1.33964
ProportionalXYZ,19,6,7,1.00132,0.759494,0.779409,0.439595
ProportionalXYZ,19,6,8,0.975142,0.727057,0.856946,0.622502
ProportionalXYZ,19,6,9,1.01591,0.767963,0.695138,0.427014
LinearSimpleXYZ,3,22,0,1.27704,0.172223,0.922493,1.45702
LinearSimpleXYZ,3,22,1,0.466249,0,1.04149,0.841977
LinearSimpleXYZ,3,22,2,0.403015,0,1.04565,0.9209
LinearSimpleXYZ,3,22,3,1.83405,0,0.804822,1.46256
LinearSimpleXYZ,3,22,4,0.448652,0,1.04163,1.00947
LinearSimpleXYZ,3,22,5,0.814013,0.158802,1.00434,0.970742
LinearSimpleXYZ,3,22,6,1.09477,0.0930557,0.966082,1.27614
LinearSimpleXYZ,3,22,7,1.04544,0.159105,0.967918,1.13144
LinearSimpleXYZ,3,22,8,1.12601,0.0606591,0.951603,1.23786
LinearSimpleXYZ,3,22,9,1.27627,0,0.92302,1.24692
LinearSimpleXYZ,7,18,0,1.30324,0.378709,0.825889,1.47393
LinearSimpleXYZ,7,18,1,1.23531,0.384669,0.864403,0.996269
LinearSimpleXYZ,7,18,2,0.63974,0.168692,1.0884,0.70435
LinearSimpleXYZ,7,18,3,0.542798,0.347457,1.10702,0.636042
LinearSimpleXYZ,7,18,4,1.30258,0.345761,0.818526,1.03334
LinearSimpleXYZ,7,18,5,0.481221,0.249804,1.12273,0.737467
LinearSimpleXYZ,7,18,6,0.584857,0.307634,1.09897,0.678102
LinearSimpleXYZ,7,18,7,1.28116,0.356589,0.834826,0.998191
LinearSimpleXYZ,7,18,8,1.30153,0.474891,0.823178,0.910333
LinearSimpleXYZ,7,18,9,0.630351,0.193858,1.09282,0.906083
LinearSimpleXYZ,11,14,0,0.792202,0.378366,1.08643,0.727695
LinearSimpleXYZ,11,14,1,0.566554,0.271206,1.21175,0.867148
LinearSimpleXYZ,11,14,2,0.61086,0.389843,1.18846,0.700768
LinearSimpleXYZ,11,14,3,0.669872,0.376617,1.15601,0.843312
LinearSimpleXYZ,11,14,4,1.08246,0.456621,0.889062,0.901134
LinearSimpleXYZ,11,14,5,0.922728,0.248521,0.983053,0.824543
LinearSimpleXYZ,11,14,6,1.05626,0.452173,0.903949,0.836763
LinearSimpleXYZ,11,14,7,1.11733,0.457061,0.841791,0.762308
LinearSimpleXYZ,11,14,8,1.19879,0.509812,0.719023,0.651739
LinearSimpleXYZ,11,14,9,0.632822,0.287982,1.17454,0.876148
LinearSimpleXYZ,15,10,0,0.772187,0.378377,1.17344,0.764454
LinearSimpleXYZ,15,10,1,0.899223,0.504932,1.07658,0.64467
LinearSimpleXYZ,15,10,2,1.09183,0.485535,0.703044,0.612729
LinearSimpleXYZ,15,10,3,0.788621,0.364729,1.1589,0.785627
LinearSimpleXYZ,15,10,4,0.779604,0.283381,1.17241,0.888669
LinearSimpleXYZ,15,10,5,1.03341,0.503078,0.85362,0.686975
LinearSimpleXYZ,15,10,6,1.02127,0.515874,0.886822,0.623567
LinearSimpleXYZ,15,10,7,0.719012,0.336565,1.24209,0.890267
LinearSimpleXYZ,15,10,8,1.07669,0.471158,0.742354,0.664226
LinearSimpleXYZ,15,10,9,1.02354,0.502487,0.878077,0.569217
LinearSimpleXYZ,19,6,0,1.03912,0.477655,0.54681,0.664192
LinearSimpleXYZ,19,6,1,0.974726,0.494415,0.900421,0.561443
LinearSimpleXYZ,19,6,2,1.01723,0.50959,0.67097,0.506374
LinearSimpleXYZ,19,6,3,0.939606,0.497225,1.0251,0.54463
LinearSimpleXYZ,19,6,4,0.75903,0.359501,1.38079,0.928541
LinearSimpleXYZ,19,6,5,0.956658,0.502579,0.956426,0.532523
LinearSimpleXYZ,19,6,6,0.971721,0.488901,0.876313,0.596411
LinearSimpleXYZ,19,6,7,1.01377,0.485407,0.697919,0.607695
LinearSimpleXYZ,19,6,8,0.77168,0.346881,1.36136,0.933839
LinearSimpleXYZ,19,6,9,0.964154,0.457454,0.948473,0.886698
LinearFullXYZ,3,22,0,0.644237,0,1.02584,0.756171
LinearFullXYZ,3,22,1,1.25929,0,0.926477,0.689772
LinearFullXYZ,3,22,2,0.410997,0,1.046,1.11965
LinearFullXYZ,3,22,3,0.857386,0,0.999748,1.38241
LinearFullXYZ,3,22,4,0.686919,0,1.02313,0.901258
LinearFullXYZ,3,22,5,0.668657,0,1.02516,0.712637
LinearFullXYZ,3,22,6,1.77249,0,0.825454,0.878524
LinearFullXYZ,3,22,7,0.865406,0,0.999809,1.1551
LinearFullXYZ,3,22,8,0.501048,0,1.03886,0.823247
LinearFullXYZ,3,22,9,0.478093,0,1.04129,1.00214
LinearFullXYZ,7,18,0,0.734481,0.140301,1.05623,0.600151
LinearFullXYZ,7,18,1,0.515961,0,1.11216,0.650385
LinearFullXYZ,7,18,2,1.23979,0,0.867017,1.06404
LinearFullXYZ,7,18,3,0.74783,0,1.04714,1.17509
LinearFullXYZ,7,18,4,1.36407,0,0.766403,0.86469
LinearFullXYZ,7,18,5,0.734149,0,1.06205,1.21823
LinearFullXYZ,7,18,6,1.4417,0,0.703287,1.69157
LinearFullXYZ,7,18,7,0.939953,0.0500913,0.979197,0.907789
LinearFullXYZ,7,18,8,0.958313,0,0.967375,1.19622
LinearFullXYZ,7,18,9,0.544141,0,1.10498,1.06295
LinearFullXYZ,11,14,0,0.587996,0.138938,1.19904,0.927935
LinearFullXYZ,11,14,1,1.08002,0.191947,0.87942,0.790626
LinearFullXYZ,11,14,2,0.766819,0.221555,1.0904,0.727565
LinearFullXYZ,11,14,3,0.829174,0.173833,1.05518,0.916201
LinearFullXYZ,11,14,4,0.871165,0.168677,1.02813,0.799802
LinearFullXYZ,11,14,5,1.23507,0.249255,0.666951,0.591232
LinearFullXYZ,11,14,6,0.678585,0.188542,1.15079,1.13785
LinearFullXYZ,11,14,7,0.831849,0.125155,1.04852,1.06156
LinearFullXYZ,11,14,8,0.833069,0.112751,1.04676,0.914615
LinearFullXYZ,11,14,9,0.910784,0.177872,0.992244,1.13182
LinearFullXYZ,15,10,0,1.08551,0.328626,0.718279,0.471668
LinearFullXYZ,15,10,1,0.677049,0.286905,1.28526,0.77529
LinearFullXYZ,15,10,2,0.839382,0.288497,1.10378,0.828294
LinearFullXYZ,15,10,3,0.829611,0.279016,1.11215,0.776584
LinearFullXYZ,15,10,4,1.10146,0.288965,0.668585,1.74707
LinearFullXYZ,15,10,5,1.01624,0.284098,0.872473,0.652004
LinearFullXYZ,15,10,6,0.935667,0.29044,1.02485,0.643579
LinearFullXYZ,15,10,7,0.775343,0.21359,1.16899,0.850855
LinearFullXYZ,15,10,8,1.02171,0.30974,0.876268,0.798068
LinearFullXYZ,15,10,9,0.575221,0.145014,1.3663,0.982823
LinearFullXYZ,19,6,0,0.924307,0.323426,1.07568,0.678125
LinearFullXYZ,19,6,1,0.795835,0.23589,1.3125,1.09021
LinearFullXYZ,19,6,2,1.02415,0.311013,0.622584,0.621902
LinearFullXYZ,19,6,3,0.94382,0.255551,1.02087,0.83259
LinearFullXYZ,19,6,4,0.963989,0.300024,0.952095,0.924761
LinearFullXYZ,19,6,5,1.01138,0.350336,0.705012,0.460269
LinearFullXYZ,19,6,6,0.94139,0.310246,1.02377,0.78289
LinearFullXYZ,19,6,7,0.694851,0.274091,1.52146,0.990268
LinearFullXYZ,19,6,8,1.03209,0.353487,0.585307,0.524017
LinearFullXYZ,19,6,9,0.754631,0.296423,1.39889,0.90868
